<?xml version="1.0" encoding="UTF-8"?>
<glyph name="Atilde" format="1">
  <advance width="288"/>
  <unicode hex="00C3"/>
  <outline>
    <component base="A"/>
    <component base="tilde" xOffset="12" yOffset="121"/>
  </outline>
  <lib>
    <dict>
      <key>com.schriftgestaltung.Glyphs.lastChange</key>
      <string>2019-04-26 20:29:54 +0000</string>
    </dict>
  </lib>
</glyph>
