<?xml version="1.0" encoding="UTF-8"?>
<glyph name="adieresis" format="1">
  <advance width="297"/>
  <unicode hex="00E4"/>
  <outline>
    <component base="a"/>
    <component base="dieresis" xOffset="11"/>
  </outline>
  <lib>
    <dict>
      <key>com.schriftgestaltung.Glyphs.lastChange</key>
      <string>2019-04-26 20:29:54 +0000</string>
      <key>public.markColor</key>
      <string>1,1,0,0.5</string>
    </dict>
  </lib>
</glyph>
