<?xml version="1.0" encoding="UTF-8"?>
<glyph name="bullet" format="1">
  <advance width="176"/>
  <unicode hex="2022"/>
  <outline>
    <contour>
      <point x="20" y="386" type="line"/>
      <point x="20" y="275" type="line"/>
      <point x="156" y="275" type="line"/>
      <point x="156" y="386" type="line"/>
    </contour>
  </outline>
  <lib>
    <dict>
      <key>com.schriftgestaltung.Glyphs.lastChange</key>
      <string>2019-04-26 20:29:54 +0000</string>
    </dict>
  </lib>
</glyph>
