<?xml version="1.0" encoding="UTF-8"?>
<glyph name="h" format="1">
  <advance width="283"/>
  <unicode hex="0068"/>
  <outline>
    <contour>
      <point x="35" y="730" type="line"/>
      <point x="105" y="730" type="line"/>
      <point x="105" y="589" type="line"/>
      <point x="81" y="437" type="line"/>
      <point x="91" y="435" type="line"/>
      <point x="112" y="585"/>
      <point x="146" y="610"/>
      <point x="184" y="610" type="curve"/>
      <point x="221" y="610"/>
      <point x="248" y="579"/>
      <point x="248" y="529" type="curve"/>
      <point x="248" y="0" type="line" smooth="yes"/>
      <point x="178" y="0" type="line"/>
      <point x="178" y="490" type="line" smooth="yes"/>
      <point x="178" y="526"/>
      <point x="173" y="542"/>
      <point x="154" y="542" type="curve"/>
      <point x="126" y="542"/>
      <point x="105" y="473"/>
      <point x="105" y="379" type="curve"/>
      <point x="105" y="0" type="line" smooth="yes"/>
      <point x="35" y="0" type="line"/>
    </contour>
  </outline>
  <lib>
    <dict>
      <key>com.schriftgestaltung.Glyphs.lastChange</key>
      <string>2019-04-26 20:29:54 +0000</string>
      <key>com.typemytype.robofont.layerData</key>
      <dict>
        <key>background</key>
        <dict>
          <key>anchors</key>
          <array>
          </array>
          <key>components</key>
          <array>
          </array>
          <key>contours</key>
          <array>
            <dict>
              <key>points</key>
              <array>
                <dict>
                  <key>segmentType</key>
                  <string>line</string>
                  <key>smooth</key>
                  <integer>0</integer>
                  <key>x</key>
                  <integer>104</integer>
                  <key>y</key>
                  <integer>600</integer>
                </dict>
                <dict>
                  <key>segmentType</key>
                  <string>line</string>
                  <key>smooth</key>
                  <integer>0</integer>
                  <key>x</key>
                  <integer>104</integer>
                  <key>y</key>
                  <integer>589</integer>
                </dict>
                <dict>
                  <key>segmentType</key>
                  <string>line</string>
                  <key>smooth</key>
                  <integer>0</integer>
                  <key>x</key>
                  <integer>81</integer>
                  <key>y</key>
                  <integer>437</integer>
                </dict>
                <dict>
                  <key>segmentType</key>
                  <string>line</string>
                  <key>smooth</key>
                  <integer>0</integer>
                  <key>x</key>
                  <integer>91</integer>
                  <key>y</key>
                  <integer>435</integer>
                </dict>
                <dict>
                  <key>smooth</key>
                  <integer>0</integer>
                  <key>x</key>
                  <integer>112</integer>
                  <key>y</key>
                  <integer>588</integer>
                </dict>
                <dict>
                  <key>smooth</key>
                  <integer>0</integer>
                  <key>x</key>
                  <integer>146</integer>
                  <key>y</key>
                  <integer>613</integer>
                </dict>
                <dict>
                  <key>segmentType</key>
                  <string>curve</string>
                  <key>smooth</key>
                  <integer>1</integer>
                  <key>x</key>
                  <integer>184</integer>
                  <key>y</key>
                  <integer>613</integer>
                </dict>
                <dict>
                  <key>smooth</key>
                  <integer>0</integer>
                  <key>x</key>
                  <integer>221</integer>
                  <key>y</key>
                  <integer>613</integer>
                </dict>
                <dict>
                  <key>smooth</key>
                  <integer>0</integer>
                  <key>x</key>
                  <integer>248</integer>
                  <key>y</key>
                  <integer>582</integer>
                </dict>
                <dict>
                  <key>segmentType</key>
                  <string>curve</string>
                  <key>smooth</key>
                  <integer>1</integer>
                  <key>x</key>
                  <integer>248</integer>
                  <key>y</key>
                  <integer>532</integer>
                </dict>
                <dict>
                  <key>segmentType</key>
                  <string>line</string>
                  <key>smooth</key>
                  <integer>1</integer>
                  <key>x</key>
                  <integer>248</integer>
                  <key>y</key>
                  <integer>0</integer>
                </dict>
                <dict>
                  <key>segmentType</key>
                  <string>line</string>
                  <key>smooth</key>
                  <integer>0</integer>
                  <key>x</key>
                  <integer>178</integer>
                  <key>y</key>
                  <integer>0</integer>
                </dict>
                <dict>
                  <key>segmentType</key>
                  <string>line</string>
                  <key>smooth</key>
                  <integer>1</integer>
                  <key>x</key>
                  <integer>178</integer>
                  <key>y</key>
                  <integer>493</integer>
                </dict>
                <dict>
                  <key>smooth</key>
                  <integer>0</integer>
                  <key>x</key>
                  <integer>178</integer>
                  <key>y</key>
                  <integer>529</integer>
                </dict>
                <dict>
                  <key>smooth</key>
                  <integer>0</integer>
                  <key>x</key>
                  <integer>173</integer>
                  <key>y</key>
                  <integer>545</integer>
                </dict>
                <dict>
                  <key>segmentType</key>
                  <string>curve</string>
                  <key>smooth</key>
                  <integer>1</integer>
                  <key>x</key>
                  <integer>154</integer>
                  <key>y</key>
                  <integer>545</integer>
                </dict>
                <dict>
                  <key>smooth</key>
                  <integer>0</integer>
                  <key>x</key>
                  <integer>126</integer>
                  <key>y</key>
                  <integer>545</integer>
                </dict>
                <dict>
                  <key>smooth</key>
                  <integer>0</integer>
                  <key>x</key>
                  <integer>105</integer>
                  <key>y</key>
                  <integer>476</integer>
                </dict>
                <dict>
                  <key>segmentType</key>
                  <string>curve</string>
                  <key>smooth</key>
                  <integer>1</integer>
                  <key>x</key>
                  <integer>105</integer>
                  <key>y</key>
                  <integer>382</integer>
                </dict>
                <dict>
                  <key>segmentType</key>
                  <string>line</string>
                  <key>smooth</key>
                  <integer>1</integer>
                  <key>x</key>
                  <integer>105</integer>
                  <key>y</key>
                  <integer>0</integer>
                </dict>
                <dict>
                  <key>segmentType</key>
                  <string>line</string>
                  <key>smooth</key>
                  <integer>0</integer>
                  <key>x</key>
                  <integer>35</integer>
                  <key>y</key>
                  <integer>0</integer>
                </dict>
                <dict>
                  <key>segmentType</key>
                  <string>line</string>
                  <key>smooth</key>
                  <integer>0</integer>
                  <key>x</key>
                  <integer>35</integer>
                  <key>y</key>
                  <integer>600</integer>
                </dict>
              </array>
            </dict>
          </array>
          <key>lib</key>
          <dict>
          </dict>
          <key>name</key>
          <string>h</string>
          <key>unicodes</key>
          <array>
          </array>
          <key>width</key>
          <integer>283</integer>
        </dict>
      </dict>
      <key>public.markColor</key>
      <string>0,0,1,1</string>
    </dict>
  </lib>
</glyph>
